// Jest Snapshot v1, https://goo.gl/fbAQLP

exports[`PendingMembersApp renders pending members 1`] = `
Array [
  "<div data-testid=\\"pending-members-row\\" class=\\"gl-p-5 gl-border-0 gl-border-b-1! gl-border-gray-100 gl-border-solid\\">
  <gl-avatar-link-stub target=\\"blank\\" href=\\"http://127.0.0.1:3000/334050-1\\" alt=\\"334050-1 334050-1\\">
    <gl-avatar-labeled-stub label=\\"334050-1 334050-1\\" sublabel=\\"\\" labellink=\\"\\" sublabellink=\\"\\" src=\\"https://www.gravatar.com/avatar/9987bae8f71451bb2d422d0596367b25?s=80&amp;d=identicon\\" size=\\"32\\"></gl-avatar-labeled-stub>
  </gl-avatar-link-stub>
</div>",
  "<div data-testid=\\"pending-members-row\\" class=\\"gl-p-5 gl-border-0 gl-border-b-1! gl-border-gray-100 gl-border-solid\\">
  <gl-avatar-link-stub target=\\"blank\\">
    <gl-avatar-labeled-stub label=\\"first-invite@gitlab.com\\" sublabel=\\"\\" labellink=\\"\\" sublabellink=\\"\\" src=\\"https://www.gravatar.com/avatar/8bad6be3d5070e7f7865d91a50f44f1f?s=80&amp;d=identicon\\" size=\\"32\\"></gl-avatar-labeled-stub>
  </gl-avatar-link-stub>
</div>",
]
`;
